{"code":200,"result":{"page":1,"page_size":10,"total_count":60,"page_count":6,"item_list":[{"id":1,"name":"海口市","mode":2,"op_mode":2,"franchisee_id":77,"franchisee_name":"松果自营","city_admins":[{"user_name":"雷军","user_id":10001},{"user_name":"孙秀兰","user_id":10002}],"open_time":"1987-03-22 02:44:55","sys_user_name":"马明","update_time":"2020-01-03T07:02:40.023Z"},{"id":2,"name":"贺州市","mode":1,"op_mode":2,"franchisee_id":77,"franchisee_name":"松果自营","city_admins":[{"user_name":"钱涛","user_id":10003},{"user_name":"谢洋","user_id":10004}],"open_time":"2000-05-26 09:45:15","sys_user_name":"薛秀英","update_time":"2020-01-03T07:02:40.023Z"},{"id":3,"name":"中卫市","mode":2,"op_mode":1,"franchisee_id":77,"franchisee_name":"松果自营","city_admins":[{"user_name":"赖娟","user_id":10005},{"user_name":"邹秀英","user_id":10006}],"open_time":"1979-03-31 17:50:48","sys_user_name":"邹静","update_time":"2020-01-03T07:02:40.023Z"},{"id":4,"name":"白银市","mode":1,"op_mode":1,"franchisee_id":77,"franchisee_name":"松果自营","city_admins":[{"user_name":"邹刚","user_id":10007}],"open_time":"2012-12-11 08:41:45","sys_user_name":"夏敏","update_time":"2020-01-03T07:02:40.023Z"},{"id":5,"name":"玉树藏族自治州","mode":2,"op_mode":2,"franchisee_id":77,"franchisee_name":"松果自营","city_admins":[{"user_name":"于洋","user_id":10008}],"open_time":"2015-02-24 01:37:57","sys_user_name":"余秀英","update_time":"2020-01-03T07:02:40.023Z"},{"id":6,"name":"离岛","mode":2,"op_mode":2,"franchisee_id":77,"franchisee_name":"松果自营","city_admins":[{"user_name":"苏强","user_id":10009},{"user_name":"蒋刚","user_id":10010}],"open_time":"1990-11-05 13:41:27","sys_user_name":"万娜","update_time":"2020-01-03T07:02:40.023Z"},{"id":7,"name":"武威市","mode":1,"op_mode":1,"franchisee_id":77,"franchisee_name":"松果自营","city_admins":[{"user_name":"叶秀兰","user_id":10011},{"user_name":"邵娜","user_id":10012}],"open_time":"1994-08-28 06:32:10","sys_user_name":"范丽","update_time":"2020-01-03T07:02:40.023Z"},{"id":8,"name":"四平市","mode":1,"op_mode":2,"franchisee_id":77,"franchisee_name":"松果自营","city_admins":[{"user_name":"吕丽","user_id":10013},{"user_name":"郝磊","user_id":10014}],"open_time":"1980-02-03 17:37:10","sys_user_name":"徐桂英","update_time":"2020-01-03T07:02:40.023Z"},{"id":9,"name":"乌兰察布市","mode":2,"op_mode":1,"franchisee_id":77,"franchisee_name":"松果自营","city_admins":[{"user_name":"陆强","user_id":10015},{"user_name":"汤杰","user_id":10016}],"open_time":"1972-10-29 07:04:08","sys_user_name":"田芳","update_time":"2020-01-03T07:02:40.023Z"},{"id":10,"name":"清远市","mode":1,"op_mode":1,"franchisee_id":77,"franchisee_name":"松果自营","city_admins":[{"user_name":"陆芳","user_id":10017},{"user_name":"薛霞","user_id":10018}],"open_time":"1971-07-28 04:37:23","sys_user_name":"孙敏","update_time":"2020-01-03T07:02:40.023Z"}]}}