{"code":200,"result":{"page":1,"page_size":10,"total_count":85,"page_count":9,"item_list":[{"id":2959165,"order_sn":"T180237612","bike_sn":800116016,"user_id":908352,"user_name":"郑杰","mobile":"11941857354","distance":2000,"total_time":4000,"status":1,"start_time":"2006-04-21 13:47:30","end_time":"1975-04-07 10:34:11","total_fee":1000,"user_pay":300},{"id":2959166,"order_sn":"T180864176","bike_sn":800116036,"user_id":908352,"user_name":"陈娜","mobile":"15385926732","distance":2000,"total_time":4000,"status":2,"start_time":"2003-04-05 22:58:23","end_time":"2001-01-27 00:42:57","total_fee":1000,"user_pay":300},{"id":2959167,"order_sn":"T180451285","bike_sn":800116046,"user_id":908352,"user_name":"金秀兰","mobile":"12515535008","distance":2000,"total_time":4000,"status":2,"start_time":"1991-04-14 04:43:42","end_time":"1973-07-28 02:25:56","total_fee":1000,"user_pay":300},{"id":2959168,"order_sn":"T180216328","bike_sn":800116085,"user_id":908352,"user_name":"金敏","mobile":"17808627573","distance":2000,"total_time":4000,"status":1,"start_time":"1972-09-08 18:31:51","end_time":"1979-01-29 05:39:05","total_fee":1000,"user_pay":300},{"id":2959169,"order_sn":"T180614708","bike_sn":800116038,"user_id":908352,"user_name":"董艳","mobile":"10524362404","distance":2000,"total_time":4000,"status":2,"start_time":"1989-12-30 11:35:46","end_time":"1980-02-01 12:04:21","total_fee":1000,"user_pay":300},{"id":2959170,"order_sn":"T180527436","bike_sn":800116097,"user_id":908352,"user_name":"杜桂英","mobile":"11350068197","distance":2000,"total_time":4000,"status":2,"start_time":"1973-04-18 21:59:22","end_time":"1980-10-19 10:56:18","total_fee":1000,"user_pay":300},{"id":2959171,"order_sn":"T180084148","bike_sn":800116027,"user_id":908352,"user_name":"傅杰","mobile":"19829678113","distance":2000,"total_time":4000,"status":1,"start_time":"1986-01-15 23:44:32","end_time":"2005-03-10 19:39:05","total_fee":1000,"user_pay":300},{"id":2959172,"order_sn":"T180131051","bike_sn":800116043,"user_id":908352,"user_name":"谢秀兰","mobile":"18228863632","distance":2000,"total_time":4000,"status":1,"start_time":"1973-04-12 19:23:13","end_time":"2006-09-29 18:13:51","total_fee":1000,"user_pay":300},{"id":2959173,"order_sn":"T180802650","bike_sn":800116058,"user_id":908352,"user_name":"阎秀兰","mobile":"12833267375","distance":2000,"total_time":4000,"status":1,"start_time":"2011-01-25 20:49:19","end_time":"1972-05-24 14:03:57","total_fee":1000,"user_pay":300},{"id":2959174,"order_sn":"T180730925","bike_sn":800116078,"user_id":908352,"user_name":"常勇","mobile":"17583613086","distance":2000,"total_time":4000,"status":1,"start_time":"1985-10-08 12:00:04","end_time":"2007-11-29 06:24:39","total_fee":1000,"user_pay":300}]}}