{"code":200,"msg":"success","result":{"page":1,"page_size":10,"total_count":60,"page_count":6,"item_list":[{"id":1,"userName":"程勇","age":26,"gender":1,"birthday":"1983-04-26","address":"香港特别行政区 九龙 油尖旺区","time":"12:32:52"},{"id":2,"userName":"杨静","age":42,"gender":1,"birthday":"2018-06-06","address":"黑龙江省 佳木斯市 向阳区","time":"15:46:43"},{"id":3,"userName":"卢强","age":43,"gender":2,"birthday":"1990-07-03","address":"湖南省 永州市 双牌县","time":"16:13:06"},{"id":4,"userName":"卢杰","age":20,"gender":2,"birthday":"1971-08-30","address":"山东省 滨州市 滨城区","time":"18:40:36"},{"id":5,"userName":"苏娜","age":25,"gender":1,"birthday":"1995-08-02","address":"香港特别行政区 九龙 九龙城区","time":"18:55:53"},{"id":6,"userName":"宋强","age":38,"gender":2,"birthday":"1988-02-07","address":"江苏省 无锡市 江阴市","time":"08:36:47"},{"id":7,"userName":"毛桂英","age":21,"gender":2,"birthday":"1977-05-02","address":"福建省 莆田市 秀屿区","time":"07:15:57"},{"id":8,"userName":"郭强","age":42,"gender":1,"birthday":"1990-02-08","address":"重庆 重庆市 万盛区","time":"19:40:27"},{"id":9,"userName":"薛秀英","age":30,"gender":1,"birthday":"2001-05-08","address":"山西省 晋中市 左权县","time":"11:17:38"},{"id":10,"userName":"孟娟","age":44,"gender":1,"birthday":"1994-04-02","address":"吉林省 松原市 宁江区","time":"11:12:34"}]}}